{
    "version": "v1.2.0",
    "metadata": {
        "links": {
            "self": "https://api.amp.cisco.com/v1/events?connector_guid[]=fc2842aa-12a7-4e65-ab73-b4d8053a9d9d&event_type[]=1107296272&event_type[]=1090519054&limit=10",
            "next": "https://api.amp.cisco.com/v1/events?connector_guid%5B%5D=fc2842aa-12a7-4e65-ab73-b4d8053a9d9d&event_type%5B%5D=1107296272&event_type%5B%5D=1090519054&limit=10&offset=10"
        },
        "results": {
            "total": 63,
            "current_item_count": 10,
            "index": 0,
            "items_per_page": 10
        }
    },
    "data": [
        {
            "id": 6533671385032556606,
            "timestamp": 1617884859,
            "timestamp_nanoseconds": 14000000,
            "date": "2021-04-08T12:27:39+00:00",
            "event_type": "Threat Detected",
            "event_type_id": 1090519054,
            "detection": "W32.File.MalParent",
            "detection_id": "6533671380737589309",
            "connector_guid": "fc2842aa-12a7-4e65-ab73-b4d8053a9d9d",
            "group_guids": [
                "6a208a97-badf-4296-87c2-40779ffff0af"
            ],
            "severity": "Medium",
            "computer": {
                "connector_guid": "fc2842aa-12a7-4e65-ab73-b4d8053a9d9d",
                "hostname": "Demo_AMP_Threat_Audit",
                "external_ip": "217.80.222.179",
                "user": "johndoe",
                "active": true,
                "network_addresses": [
                    {
                        "ip": "192.168.128.156",
                        "mac": "39:1f:bd:c5:c5:82"
                    }
                ],
                "links": {
                    "computer": "https://api.amp.cisco.com/v1/computers/fc2842aa-12a7-4e65-ab73-b4d8053a9d9d",
                    "trajectory": "https://api.amp.cisco.com/v1/computers/fc2842aa-12a7-4e65-ab73-b4d8053a9d9d/trajectory",
                    "group": "https://api.amp.cisco.com/v1/groups/48e2eb37-df86-4823-9feb-1cb1cba09eb1"
                }
            },
            "file": {
                "disposition": "Malicious",
                "file_name": "ekjrngjker.exe",
                "file_path": "C:\\ekjrngjker.exe",
                "identity": {
                    "sha256": "b1380fd95bc5c0729738dcda2696aa0a7c6ee97a93d992931ce717a0df523967",
                    "sha1": "b024546a49bad1bd60fccef0a5d11b55f9a442c4",
                    "md5": "b99e0a8c56f963246b6464b9fffbf7a2"
                }
            }
        },
        {
            "id": 6533671385032556607,
            "timestamp": 1617884859,
            "timestamp_nanoseconds": 25000000,
            "date": "2021-04-08T12:27:39+00:00",
            "event_type": "Threat Detected",
            "event_type_id": 1090519054,
            "detection": "W32.File.MalParent",
            "detection_id": "6533671385032556606",
            "connector_guid": "fc2842aa-12a7-4e65-ab73-b4d8053a9d9d",
            "group_guids": [
                "6a208a97-badf-4296-87c2-40779ffff0af"
            ],
            "severity": "Medium",
            "computer": {
                "connector_guid": "fc2842aa-12a7-4e65-ab73-b4d8053a9d9d",
                "hostname": "Demo_AMP_Threat_Audit",
                "external_ip": "217.80.222.179",
                "user": "johndoe",
                "active": true,
                "network_addresses": [
                    {
                        "ip": "192.168.128.156",
                        "mac": "39:1f:bd:c5:c5:82"
                    }
                ],
                "links": {
                    "computer": "https://api.amp.cisco.com/v1/computers/fc2842aa-12a7-4e65-ab73-b4d8053a9d9d",
                    "trajectory": "https://api.amp.cisco.com/v1/computers/fc2842aa-12a7-4e65-ab73-b4d8053a9d9d/trajectory",
                    "group": "https://api.amp.cisco.com/v1/groups/48e2eb37-df86-4823-9feb-1cb1cba09eb1"
                }
            },
            "file": {
                "disposition": "Malicious",
                "file_name": "ekjrngjker.exe",
                "file_path": "\\\\?\\C:\\ekjrngjker.exe",
                "identity": {
                    "sha256": "b1380fd95bc5c0729738dcda2696aa0a7c6ee97a93d992931ce717a0df523967",
                    "sha1": "b024546a49bad1bd60fccef0a5d11b55f9a442c4",
                    "md5": "b99e0a8c56f963246b6464b9fffbf7a2"
                }
            }
        },
        {
            "id": 6533671380737589309,
            "timestamp": 1617884858,
            "timestamp_nanoseconds": 605000000,
            "date": "2021-04-08T12:27:38+00:00",
            "event_type": "Threat Detected",
            "event_type_id": 1090519054,
            "detection": "W32.File.MalParent",
            "detection_id": "6533671380737589308",
            "connector_guid": "fc2842aa-12a7-4e65-ab73-b4d8053a9d9d",
            "group_guids": [
                "6a208a97-badf-4296-87c2-40779ffff0af"
            ],
            "severity": "Medium",
            "computer": {
                "connector_guid": "fc2842aa-12a7-4e65-ab73-b4d8053a9d9d",
                "hostname": "Demo_AMP_Threat_Audit",
                "external_ip": "217.80.222.179",
                "user": "johndoe",
                "active": true,
                "network_addresses": [
                    {
                        "ip": "192.168.128.156",
                        "mac": "39:1f:bd:c5:c5:82"
                    }
                ],
                "links": {
                    "computer": "https://api.amp.cisco.com/v1/computers/fc2842aa-12a7-4e65-ab73-b4d8053a9d9d",
                    "trajectory": "https://api.amp.cisco.com/v1/computers/fc2842aa-12a7-4e65-ab73-b4d8053a9d9d/trajectory",
                    "group": "https://api.amp.cisco.com/v1/groups/48e2eb37-df86-4823-9feb-1cb1cba09eb1"
                }
            },
            "file": {
                "disposition": "Malicious",
                "file_name": "ekjrngjker.exe",
                "file_path": "C:\\ekjrngjker.exe",
                "identity": {
                    "sha256": "b1380fd95bc5c0729738dcda2696aa0a7c6ee97a93d992931ce717a0df523967",
                    "sha1": "b024546a49bad1bd60fccef0a5d11b55f9a442c4",
                    "md5": "b99e0a8c56f963246b6464b9fffbf7a2"
                }
            }
        },
        {
            "id": 6533671123039551548,
            "timestamp": 1617884798,
            "timestamp_nanoseconds": 81000000,
            "date": "2021-04-08T12:26:38+00:00",
            "event_type": "Threat Detected",
            "event_type_id": 1090519054,
            "detection": "W32.File.MalParent",
            "detection_id": "6533671123039551547",
            "connector_guid": "fc2842aa-12a7-4e65-ab73-b4d8053a9d9d",
            "group_guids": [
                "6a208a97-badf-4296-87c2-40779ffff0af"
            ],
            "severity": "Medium",
            "computer": {
                "connector_guid": "fc2842aa-12a7-4e65-ab73-b4d8053a9d9d",
                "hostname": "Demo_AMP_Threat_Audit",
                "external_ip": "217.80.222.179",
                "user": "johndoe",
                "active": true,
                "network_addresses": [
                    {
                        "ip": "192.168.128.156",
                        "mac": "39:1f:bd:c5:c5:82"
                    }
                ],
                "links": {
                    "computer": "https://api.amp.cisco.com/v1/computers/fc2842aa-12a7-4e65-ab73-b4d8053a9d9d",
                    "trajectory": "https://api.amp.cisco.com/v1/computers/fc2842aa-12a7-4e65-ab73-b4d8053a9d9d/trajectory",
                    "group": "https://api.amp.cisco.com/v1/groups/48e2eb37-df86-4823-9feb-1cb1cba09eb1"
                }
            },
            "file": {
                "disposition": "Malicious",
                "file_name": "ekjrngjker.exe",
                "file_path": "\\\\?\\C:\\ekjrngjker.exe",
                "identity": {
                    "sha256": "b1380fd95bc5c0729738dcda2696aa0a7c6ee97a93d992931ce717a0df523967",
                    "sha1": "b024546a49bad1bd60fccef0a5d11b55f9a442c4",
                    "md5": "b99e0a8c56f963246b6464b9fffbf7a2"
                }
            }
        },
        {
            "id": 6533671123039551547,
            "timestamp": 1617884798,
            "timestamp_nanoseconds": 60000000,
            "date": "2021-04-08T12:26:38+00:00",
            "event_type": "Threat Detected",
            "event_type_id": 1090519054,
            "detection": "W32.File.MalParent",
            "detection_id": "6533671123039551546",
            "connector_guid": "fc2842aa-12a7-4e65-ab73-b4d8053a9d9d",
            "group_guids": [
                "6a208a97-badf-4296-87c2-40779ffff0af"
            ],
            "severity": "Medium",
            "computer": {
                "connector_guid": "fc2842aa-12a7-4e65-ab73-b4d8053a9d9d",
                "hostname": "Demo_AMP_Threat_Audit",
                "external_ip": "217.80.222.179",
                "user": "johndoe",
                "active": true,
                "network_addresses": [
                    {
                        "ip": "192.168.128.156",
                        "mac": "39:1f:bd:c5:c5:82"
                    }
                ],
                "links": {
                    "computer": "https://api.amp.cisco.com/v1/computers/fc2842aa-12a7-4e65-ab73-b4d8053a9d9d",
                    "trajectory": "https://api.amp.cisco.com/v1/computers/fc2842aa-12a7-4e65-ab73-b4d8053a9d9d/trajectory",
                    "group": "https://api.amp.cisco.com/v1/groups/48e2eb37-df86-4823-9feb-1cb1cba09eb1"
                }
            },
            "file": {
                "disposition": "Malicious",
                "file_name": "ekjrngjker.exe",
                "file_path": "C:\\ekjrngjker.exe",
                "identity": {
                    "sha256": "b1380fd95bc5c0729738dcda2696aa0a7c6ee97a93d992931ce717a0df523967",
                    "sha1": "b024546a49bad1bd60fccef0a5d11b55f9a442c4",
                    "md5": "b99e0a8c56f963246b6464b9fffbf7a2"
                }
            }
        },
        {
            "id": 6533671118744584250,
            "timestamp": 1617884797,
            "timestamp_nanoseconds": 666000000,
            "date": "2021-04-08T12:26:37+00:00",
            "event_type": "Threat Detected",
            "event_type_id": 1090519054,
            "detection": "W32.File.MalParent",
            "detection_id": "6533671118744584249",
            "connector_guid": "fc2842aa-12a7-4e65-ab73-b4d8053a9d9d",
            "group_guids": [
                "6a208a97-badf-4296-87c2-40779ffff0af"
            ],
            "severity": "Medium",
            "computer": {
                "connector_guid": "fc2842aa-12a7-4e65-ab73-b4d8053a9d9d",
                "hostname": "Demo_AMP_Threat_Audit",
                "external_ip": "217.80.222.179",
                "user": "johndoe",
                "active": true,
                "network_addresses": [
                    {
                        "ip": "192.168.128.156",
                        "mac": "39:1f:bd:c5:c5:82"
                    }
                ],
                "links": {
                    "computer": "https://api.amp.cisco.com/v1/computers/fc2842aa-12a7-4e65-ab73-b4d8053a9d9d",
                    "trajectory": "https://api.amp.cisco.com/v1/computers/fc2842aa-12a7-4e65-ab73-b4d8053a9d9d/trajectory",
                    "group": "https://api.amp.cisco.com/v1/groups/48e2eb37-df86-4823-9feb-1cb1cba09eb1"
                }
            },
            "file": {
                "disposition": "Malicious",
                "file_name": "ekjrngjker.exe",
                "file_path": "C:\\ekjrngjker.exe",
                "identity": {
                    "sha256": "b1380fd95bc5c0729738dcda2696aa0a7c6ee97a93d992931ce717a0df523967",
                    "sha1": "b024546a49bad1bd60fccef0a5d11b55f9a442c4",
                    "md5": "b99e0a8c56f963246b6464b9fffbf7a2"
                }
            }
        },
        {
            "id": 6533670861046546488,
            "timestamp": 1617884737,
            "timestamp_nanoseconds": 274000000,
            "date": "2021-04-08T12:25:37+00:00",
            "event_type": "Threat Detected",
            "event_type_id": 1090519054,
            "detection": "W32.File.MalParent",
            "detection_id": "6533670861046546487",
            "connector_guid": "fc2842aa-12a7-4e65-ab73-b4d8053a9d9d",
            "group_guids": [
                "6a208a97-badf-4296-87c2-40779ffff0af"
            ],
            "severity": "Medium",
            "computer": {
                "connector_guid": "fc2842aa-12a7-4e65-ab73-b4d8053a9d9d",
                "hostname": "Demo_AMP_Threat_Audit",
                "external_ip": "217.80.222.179",
                "user": "johndoe",
                "active": true,
                "network_addresses": [
                    {
                        "ip": "192.168.128.156",
                        "mac": "39:1f:bd:c5:c5:82"
                    }
                ],
                "links": {
                    "computer": "https://api.amp.cisco.com/v1/computers/fc2842aa-12a7-4e65-ab73-b4d8053a9d9d",
                    "trajectory": "https://api.amp.cisco.com/v1/computers/fc2842aa-12a7-4e65-ab73-b4d8053a9d9d/trajectory",
                    "group": "https://api.amp.cisco.com/v1/groups/48e2eb37-df86-4823-9feb-1cb1cba09eb1"
                }
            },
            "file": {
                "disposition": "Malicious",
                "file_name": "ekjrngjker.exe",
                "file_path": "C:\\ekjrngjker.exe",
                "identity": {
                    "sha256": "b1380fd95bc5c0729738dcda2696aa0a7c6ee97a93d992931ce717a0df523967",
                    "sha1": "b024546a49bad1bd60fccef0a5d11b55f9a442c4",
                    "md5": "b99e0a8c56f963246b6464b9fffbf7a2"
                }
            }
        },
        {
            "id": 6533670861046546489,
            "timestamp": 1617884737,
            "timestamp_nanoseconds": 293000000,
            "date": "2021-04-08T12:25:37+00:00",
            "event_type": "Threat Detected",
            "event_type_id": 1090519054,
            "detection": "W32.File.MalParent",
            "detection_id": "6533670861046546488",
            "connector_guid": "fc2842aa-12a7-4e65-ab73-b4d8053a9d9d",
            "group_guids": [
                "6a208a97-badf-4296-87c2-40779ffff0af"
            ],
            "severity": "Medium",
            "computer": {
                "connector_guid": "fc2842aa-12a7-4e65-ab73-b4d8053a9d9d",
                "hostname": "Demo_AMP_Threat_Audit",
                "external_ip": "217.80.222.179",
                "user": "johndoe",
                "active": true,
                "network_addresses": [
                    {
                        "ip": "192.168.128.156",
                        "mac": "39:1f:bd:c5:c5:82"
                    }
                ],
                "links": {
                    "computer": "https://api.amp.cisco.com/v1/computers/fc2842aa-12a7-4e65-ab73-b4d8053a9d9d",
                    "trajectory": "https://api.amp.cisco.com/v1/computers/fc2842aa-12a7-4e65-ab73-b4d8053a9d9d/trajectory",
                    "group": "https://api.amp.cisco.com/v1/groups/48e2eb37-df86-4823-9feb-1cb1cba09eb1"
                }
            },
            "file": {
                "disposition": "Malicious",
                "file_name": "ekjrngjker.exe",
                "file_path": "\\\\?\\C:\\ekjrngjker.exe",
                "identity": {
                    "sha256": "b1380fd95bc5c0729738dcda2696aa0a7c6ee97a93d992931ce717a0df523967",
                    "sha1": "b024546a49bad1bd60fccef0a5d11b55f9a442c4",
                    "md5": "b99e0a8c56f963246b6464b9fffbf7a2"
                }
            }
        },
        {
            "id": 6533670856751579191,
            "timestamp": 1617884736,
            "timestamp_nanoseconds": 880000000,
            "date": "2021-04-08T12:25:36+00:00",
            "event_type": "Threat Detected",
            "event_type_id": 1090519054,
            "detection": "W32.File.MalParent",
            "detection_id": "6533670856751579190",
            "connector_guid": "fc2842aa-12a7-4e65-ab73-b4d8053a9d9d",
            "group_guids": [
                "6a208a97-badf-4296-87c2-40779ffff0af"
            ],
            "severity": "Medium",
            "computer": {
                "connector_guid": "fc2842aa-12a7-4e65-ab73-b4d8053a9d9d",
                "hostname": "Demo_AMP_Threat_Audit",
                "external_ip": "217.80.222.179",
                "user": "johndoe",
                "active": true,
                "network_addresses": [
                    {
                        "ip": "192.168.128.156",
                        "mac": "39:1f:bd:c5:c5:82"
                    }
                ],
                "links": {
                    "computer": "https://api.amp.cisco.com/v1/computers/fc2842aa-12a7-4e65-ab73-b4d8053a9d9d",
                    "trajectory": "https://api.amp.cisco.com/v1/computers/fc2842aa-12a7-4e65-ab73-b4d8053a9d9d/trajectory",
                    "group": "https://api.amp.cisco.com/v1/groups/48e2eb37-df86-4823-9feb-1cb1cba09eb1"
                }
            },
            "file": {
                "disposition": "Malicious",
                "file_name": "ekjrngjker.exe",
                "file_path": "C:\\ekjrngjker.exe",
                "identity": {
                    "sha256": "b1380fd95bc5c0729738dcda2696aa0a7c6ee97a93d992931ce717a0df523967",
                    "sha1": "b024546a49bad1bd60fccef0a5d11b55f9a442c4",
                    "md5": "b99e0a8c56f963246b6464b9fffbf7a2"
                }
            }
        },
        {
            "id": 6533670191031648310,
            "timestamp": 1617884581,
            "timestamp_nanoseconds": 947000000,
            "date": "2021-04-08T12:23:01+00:00",
            "event_type": "Threat Detected",
            "event_type_id": 1090519054,
            "detection": "W32.File.MalParent",
            "detection_id": "6533670191031648309",
            "connector_guid": "fc2842aa-12a7-4e65-ab73-b4d8053a9d9d",
            "group_guids": [
                "6a208a97-badf-4296-87c2-40779ffff0af"
            ],
            "severity": "Medium",
            "computer": {
                "connector_guid": "fc2842aa-12a7-4e65-ab73-b4d8053a9d9d",
                "hostname": "Demo_AMP_Threat_Audit",
                "external_ip": "217.80.222.179",
                "user": "johndoe",
                "active": true,
                "network_addresses": [
                    {
                        "ip": "192.168.128.156",
                        "mac": "39:1f:bd:c5:c5:82"
                    }
                ],
                "links": {
                    "computer": "https://api.amp.cisco.com/v1/computers/fc2842aa-12a7-4e65-ab73-b4d8053a9d9d",
                    "trajectory": "https://api.amp.cisco.com/v1/computers/fc2842aa-12a7-4e65-ab73-b4d8053a9d9d/trajectory",
                    "group": "https://api.amp.cisco.com/v1/groups/48e2eb37-df86-4823-9feb-1cb1cba09eb1"
                }
            },
            "file": {
                "disposition": "Malicious",
                "file_name": "ekjrngjker.exe",
                "file_path": "\\\\?\\C:\\ekjrngjker.exe",
                "identity": {
                    "sha256": "b1380fd95bc5c0729738dcda2696aa0a7c6ee97a93d992931ce717a0df523967",
                    "sha1": "b024546a49bad1bd60fccef0a5d11b55f9a442c4",
                    "md5": "b99e0a8c56f963246b6464b9fffbf7a2"
                }
            }
        }
    ]
}